@startuml
component odo {
    left to right direction
    together {
        top to bottom direction
        interface API
        interface WhistleBlowing
        component launcher
    }
    together {
        collections identities
        collections contacts
        collections localAppCopies
    }
}
cloud IPFS <<Cloud>> {
    collections apps
    collections appStorage
}
launcher - API
launcher -- WhistleBlowing
API --> appStorage: <<encrypted>>
API --> contacts: <<manage>>
API --> identities: <<manage>>
WhistleBlowing --> IPFS: <<encrypted>>
localAppCopies --> API: <<use>>
localAppCopies ..> apps: <<copied From>>
@enduml